<?xml version="1.0" encoding="utf-8"?>
<!-- Generator: Adobe Illustrator 24.0.0, SVG Export Plug-In . SVG Version: 6.00 Build 0)  -->
<svg version="1.1" id="Calque_1" xmlns="http://www.w3.org/2000/svg" xmlns:xlink="http://www.w3.org/1999/xlink" x="0px" y="0px"
	 viewBox="0 0 371 89" style="enable-background:new 0 0 371 89;" xml:space="preserve">
<style type="text/css">
	.st0{fill:url(#SVGID_1_);}
	.st1{fill:url(#SVGID_2_);}
	.st2{fill:url(#SVGID_3_);}
	.st3{fill:url(#SVGID_4_);}
</style>
<g>
	<path d="M108.64,58.42l1.29-0.82c0.02-0.36,0.06-0.82,0.13-1.39l-0.03-3.15c0-0.57,0.21-1.25,0.63-2.05
		c-0.42-0.29-0.69-0.56-0.82-0.79c-0.04-0.06-0.07-1.15-0.09-3.25l-0.03-2.27l-0.03-1.54c0-0.4,0.16-0.84,0.47-1.32
		c0.57-0.9,0.85-1.43,0.85-1.58c0-0.13-0.01-0.27-0.03-0.44l-0.47-0.22c0.13-1.37,0.82-2.88,2.08-4.54c0.42-0.65,0.88-1.2,1.39-1.64
		c0.92-0.78,1.6-1.33,2.02-1.67c0.36-0.25,1.34-0.81,2.96-1.67l0.66-0.47l0.95-0.13c1.11-0.27,1.69-0.41,1.73-0.41
		c0.06,0,0.4,0.09,1.01,0.28c0.13,0.04,0.26,0.06,0.41,0.06c0.15,0,0.32-0.02,0.5-0.06c0.4-0.06,0.65-0.09,0.76-0.09
		c0.82,0,1.53,0.34,2.14,1.01h0.79c-0.02,0.36-0.09,0.6-0.22,0.73c-0.02,0.04-0.25,0.32-0.69,0.82c-0.34,0.48-0.55,0.76-0.63,0.82
		c-0.36,0.27-0.93,0.56-1.7,0.85c-0.46-0.25-1.17-0.65-2.11-1.2c-0.78-0.46-1.49-0.69-2.14-0.69c-0.61,0-1.56,0.33-2.84,0.98
		c-0.53,0.27-0.91,0.62-1.17,1.04c-0.59,0.92-1.16,2.25-1.7,3.97l-0.35,0.69l-0.44,1.73c-0.38,0.65-0.57,1.05-0.57,1.2
		c0,0.23,0.21,0.41,0.63,0.54c-0.15,0.4-0.22,0.82-0.22,1.26c0,0.19-0.01,0.68-0.03,1.48l0.03,2.33c-0.02,0.17-0.22,0.64-0.6,1.42
		c-0.04,0.08-0.06,0.28-0.06,0.6c0,0.34,0.18,0.83,0.54,1.48c0.1,0.19,0.16,1.75,0.16,4.7c0,0.36-0.32,0.83-0.95,1.42v0.25
		c0.19,0.19,0.43,0.33,0.73,0.41c0.38,0.13,0.61,0.69,0.69,1.7c0.55,0.55,0.92,0.85,1.13,0.91l1.39,0.38l1.83,0.5l2.21-0.85
		l2.33-0.5c0.84-0.57,1.4-0.87,1.67-0.91c0.17-0.04,0.57-0.09,1.2-0.16c0.42,0.46,0.64,0.87,0.66,1.23
		c-1.2,0.71-1.93,1.17-2.21,1.37c-0.27,0.2-0.59,0.52-0.95,0.96c-0.13,0.15-0.26,0.22-0.41,0.22c-0.23,0-0.59-0.08-1.07-0.25
		c-0.38-0.13-0.78-0.19-1.2-0.19c-0.32,0-0.89,0.07-1.73,0.22c-0.4,0.06-0.75,0.09-1.04,0.09c-0.5,0-1.11-0.07-1.83-0.22
		c-0.86-0.19-1.37-0.28-1.51-0.28c-0.21,0-0.43,0.12-0.66,0.36c-0.23,0.24-0.33,0.46-0.28,0.65l0.28,1.39l0.19,3.09
		c0,0.11-0.05,0.25-0.16,0.44c-0.44,0.15-0.66,0.38-0.66,0.69c0,0.4,0.23,0.77,0.69,1.1c0.04,0.57,0.07,0.94,0.09,1.1
		c0.15,2.02,0.3,3.38,0.47,4.1l-0.32,0.32l-0.54-0.13l-0.54,0.5c0.25,0.34,0.43,0.56,0.54,0.66c0.38,0.44,0.56,0.74,0.54,0.88v0.03
		l-0.09,1.01v0.09c0,0.21,0.07,0.71,0.22,1.51l-0.47,0.25v0.73c-0.61,0.21-1.41,0.56-2.4,1.04c-0.13,0.08-0.54,0.18-1.23,0.28v-0.19
		c-0.27,0.17-0.48,0.25-0.63,0.25c-0.15,0-0.37-0.1-0.66-0.32c0.1-0.29,0.19-0.68,0.25-1.17l0.13-0.73l0.16-0.91
		c0.32-0.97,0.47-1.65,0.47-2.05c0-0.21-0.01-0.81-0.03-1.8c0.46-0.34,0.69-0.67,0.69-1.01c0-0.34-0.08-0.82-0.25-1.45
		c-0.21-0.82-0.32-1.38-0.32-1.67l0.03-1.01v-5.42c0.02-0.71,0.13-1.1,0.32-1.17c0.57-0.19,0.96-0.36,1.17-0.5v-0.44l-0.28-0.28
		c-0.21,0.06-0.4,0.09-0.57,0.09c-0.23,0-0.38-0.04-0.44-0.13l-1.07-1.45l-1.54-0.25c-0.46-0.13-0.71-0.19-0.76-0.19
		c-0.53,0-1.32,0.58-2.4,1.73c-0.11-0.15-0.16-0.29-0.16-0.44c0-0.15,0.38-0.75,1.13-1.8c0.48-0.63,0.95-0.95,1.39-0.95
		C107.27,58.2,107.8,58.28,108.64,58.42z"/>
	<path d="M128.45,60.06c0.13-0.38,0.33-0.72,0.6-1.04c0.21-0.23,0.76-0.56,1.64-0.98c0.9-0.57,1.42-0.85,1.54-0.85
		c0.38,0,0.66,0.14,0.85,0.41l0.13,0.54l0.25,0.98c-0.06,0.23-0.09,0.41-0.09,0.54c0,0.19,0.12,0.41,0.35,0.66
		c0.42-0.13,0.99-0.39,1.7-0.79l1.32-0.44l1.32-0.88l0.85-0.35c0.46-0.23,0.71-0.35,0.76-0.35l0.69,0.13c0.04,0,0.07,0,0.09,0
		c0.11,0,0.82-0.22,2.14-0.66c0.15-0.04,0.46-0.06,0.95-0.06c0.36,0,0.61,0.05,0.76,0.16c0.02,0.02,0.24,0.23,0.66,0.63
		c0.25,0.06,0.4,0.09,0.44,0.09c0.04,0,0.35-0.15,0.91-0.44c0.04-0.02,0.09-0.03,0.16-0.03c0.27,0,0.59,0.16,0.95,0.47
		c0.34,0.29,0.58,0.75,0.73,1.36c-0.32,0.32-0.95,0.81-1.89,1.48c-0.46,0.59-0.8,0.88-1.01,0.88c-0.34,0-0.78-0.34-1.32-1.01
		c-0.38,0.04-0.69,0.06-0.95,0.06c-0.27,0-0.73-0.13-1.36-0.38c-0.5-0.19-1.02-0.32-1.54-0.38c-0.21,0.42-0.56,0.65-1.04,0.69
		c-0.59,0.04-0.96,0.08-1.1,0.13l-1.26,0.38c-0.08,0-0.25-0.07-0.5-0.22c-0.42,0.38-1.16,0.95-2.21,1.7c-0.67,0.48-1,1.33-0.98,2.55
		v0.09c0,0.25,0,0.59,0,1.01c0.02,0.38,0.03,0.69,0.03,0.95c0,0.23-0.24,0.58-0.73,1.04c0.36,0.38,0.54,0.7,0.54,0.98
		c0,0.15-0.02,0.33-0.06,0.54l0.47,0.13l0.09,0.95l0.16,5.64l-0.13,0.35l-0.82,0.44c-1.18,0.23-1.77,0.39-1.77,0.47
		c0,0.08,0.66,0.22,1.99,0.41l0.54-0.13c0.21,0.69,0.32,1.17,0.32,1.42c0,0.48-0.24,0.86-0.73,1.13c-0.19,0.11-0.72,0.21-1.61,0.32
		c-0.17,0.04-0.62,0.3-1.36,0.79c-0.13,0.08-0.27,0.13-0.44,0.13c-0.5,0-0.76-0.22-0.76-0.66c0-0.13,0.16-0.73,0.47-1.8
		c0.04-0.13,0.06-0.25,0.06-0.38c0-0.04-0.05-0.51-0.16-1.42c0-0.06,0.04-0.24,0.13-0.54l0.76-0.22c0.02-0.19,0.03-0.36,0.03-0.5
		c0-0.27-0.16-0.6-0.47-0.98c0-0.29,0-0.56,0-0.79c0-0.19-0.06-0.68-0.19-1.48c0.06-0.69,0.09-1.28,0.09-1.77
		c0.78-0.27,1.17-0.61,1.17-1.01c0-0.13-0.03-0.29-0.09-0.5c-0.25,0.06-0.46,0.09-0.63,0.09c-0.15,0-0.33-0.08-0.54-0.25
		c0-0.42,0-0.88,0-1.39v-0.66v-0.85v-0.25c0-0.17-0.01-0.36-0.03-0.57c0-0.21,0-0.38,0-0.5c0-0.34,0.14-0.79,0.41-1.36
		c-0.27-0.23-0.43-0.43-0.47-0.6c-0.02-0.06-0.06-0.75-0.13-2.05C129.12,61.01,128.89,60.61,128.45,60.06z"/>
	<path d="M148.1,60.03c0-0.29,0.32-0.69,0.95-1.2c1.39-1.07,2.59-1.78,3.59-2.11l0.95,0.98c-0.21,0.53-0.38,1.26-0.5,2.21
		c-0.13,0.78-0.19,1.25-0.19,1.42v1.17l-0.54,0.76c0,0.53,0.23,1.03,0.69,1.51c-0.13,0.23-0.19,0.37-0.19,0.41l0.06,1.54l-0.03,0.35
		c-0.02,0.15-0.03,0.39-0.03,0.72l-0.16,6.02c0.02,0.32,0.16,1.04,0.41,2.17l0.06,1.32c0.13,0.63,0.19,1,0.19,1.1
		c0,0.44-0.19,0.84-0.57,1.2c-0.11,0.11-0.5,0.38-1.2,0.82c-1.05,0.82-1.65,1.26-1.8,1.32c-0.21,0.08-0.4,0.13-0.57,0.13
		c-0.25,0-0.5-0.13-0.76-0.38c0.08-0.53,0.14-0.87,0.16-1.04c0.02-0.25,0.14-0.71,0.35-1.39l0.03-1.54l0.22-3.09l-0.03-0.57
		c0.02-0.34,0.19-0.5,0.5-0.5c0.08,0,0.19,0.01,0.32,0.03c0.1-0.34,0.16-0.57,0.16-0.69c0-0.17-0.06-0.49-0.19-0.98
		c-0.06-0.21-0.13-0.5-0.19-0.88l-0.54-0.41c0.06-0.46,0.09-0.81,0.09-1.04c0-0.1-0.01-0.26-0.03-0.47c0-0.17,0-0.32,0-0.44
		c0-0.27,0.11-0.58,0.32-0.91c-0.21-0.25-0.32-0.51-0.32-0.79v-0.25v-0.22l-0.06-0.72c1.37-0.25,2.05-0.47,2.05-0.66
		c0-0.02-0.02-0.05-0.06-0.09c-0.32-0.27-0.7-0.41-1.17-0.41c-0.34,0-0.75,0.02-1.23,0.06c0.06-0.32,0.09-0.52,0.09-0.63
		c0-0.04-0.08-1.08-0.25-3.12C148.68,60.47,148.48,60.24,148.1,60.03z M148.67,47.33V47.3c-0.04-0.74,0.49-1.53,1.61-2.4
		c0.25-0.19,0.53-0.46,0.82-0.82c0.02-0.02,0.23-0.19,0.63-0.5c0.78-1.16,1.26-1.8,1.45-1.92c0.32-0.23,0.58-0.35,0.79-0.35
		c0.08,0,0.33,0.16,0.73,0.47c0.4,0.29,0.6,0.65,0.6,1.07c0,0.34-0.19,0.63-0.57,0.88c-0.97,0.69-1.89,1.45-2.77,2.27l-0.88,0.57
		l-1.1,0.76c-0.59,0.32-0.92,0.47-1.01,0.47C148.77,47.8,148.67,47.64,148.67,47.33z"/>
	<path d="M158.96,68.58c0.29-0.46,0.77-1.4,1.42-2.81c0.42-0.88,0.71-1.34,0.88-1.39c0.38-0.32,0.76-0.64,1.13-0.98l0.73-0.82
		l1.04-0.88l1.39-1.32l0.79-0.47l0.73-0.54l0.69-0.28l0.91-0.69l1.67-0.6c1.03-0.36,1.67-0.56,1.92-0.6
		c0.5-0.06,0.95-0.13,1.32-0.19c0.42,0.42,0.73,0.64,0.91,0.66c0.02,0,0.55-0.15,1.58-0.44c0.08-0.02,0.16-0.03,0.22-0.03
		c0.02,0,0.48,0.12,1.39,0.35c0.11,0.02,0.28,0.04,0.54,0.06c0.38,0.02,0.65,0.05,0.82,0.09c0.99-0.29,1.53-0.44,1.64-0.44
		c0.42,0,0.81,0.14,1.17,0.41c-0.11,0.53-0.25,0.87-0.44,1.04c-0.19,0.19-0.54,0.36-1.04,0.5l-0.19,0.85
		c-0.67,0.32-1.11,0.57-1.32,0.76c-0.27,0.19-0.46,0.29-0.57,0.32l-0.47-0.06c-0.06,0-0.11,0-0.13,0l-1.13,0.06h-0.03l-0.91-0.13
		l-0.76-0.06c-0.71-0.23-1.31-0.37-1.8-0.41c-0.15,0-0.38-0.01-0.69-0.03c-0.38-0.04-0.69-0.06-0.95-0.06
		c-0.17,0-0.95,0.13-2.33,0.38c-0.74,0.08-1.22,0.18-1.45,0.28c-0.23,0.15-0.68,0.56-1.36,1.23c-0.17,0.19-0.54,0.33-1.1,0.41
		c-0.06,0.48-0.18,0.8-0.35,0.95c-0.21,0.17-0.59,0.29-1.13,0.38c0.04,0.23,0.06,0.44,0.06,0.63c0,0.08-0.28,0.54-0.85,1.36
		c-0.17,0.25-0.25,1.53-0.25,3.85c0,0.5,0.26,1.44,0.79,2.81c-0.34,0.59-0.52,1.02-0.54,1.29c0.13,0.11,0.48,0.23,1.07,0.38
		c0.92,1.18,1.51,2.04,1.77,2.58l0.76,0.09c0.32,0.42,0.52,0.67,0.63,0.76l1.2,0.79l0.85,0.63c0.8,0.32,1.29,0.49,1.48,0.54
		c0.13,0.04,0.61,0.08,1.45,0.13l1.17,0.25l1.1,0.06l0.82,0.09c0.42-0.04,1.11-0.28,2.08-0.72l0.57,0.16
		c0.27-0.17,0.45-0.28,0.54-0.35c0.17-0.08,0.57-0.37,1.2-0.85c0.55-0.06,1.03-0.28,1.45-0.66c0.32-0.34,0.67-0.62,1.07-0.85
		c0.17-0.1,0.35-0.26,0.54-0.47c0.5-0.59,0.87-0.88,1.1-0.88c0.17,0,0.34,0.11,0.5,0.32c-0.21,0.86-0.32,1.59-0.32,2.18
		c-0.42,0.4-0.77,0.82-1.04,1.26c-0.46,0.15-1.09,0.49-1.89,1.04c-0.34,0.06-0.64,0.19-0.91,0.38c-0.4,0.27-0.74,0.41-1.01,0.41
		L178,81.19h-0.03c-1.11,0.23-1.78,0.38-1.99,0.44c-0.06,0.02-0.35,0.21-0.85,0.57c-0.11,0.06-0.2,0.09-0.28,0.09l-3.18-0.03
		c-0.13,0-0.43,0.03-0.91,0.09c-0.5-0.34-0.98-0.53-1.42-0.57c-0.59-0.06-1.44-0.25-2.55-0.57l-0.76-0.09l-0.88-0.28
		c-0.57-0.13-0.92-0.22-1.06-0.27c-0.14-0.05-0.3-0.17-0.49-0.36c-1.09-1.07-1.64-1.7-1.64-1.89c0-0.17,0.03-0.37,0.09-0.6
		l-0.03-0.09l-1.07,0.19l-0.06-0.06c-0.38-0.78-0.65-1.27-0.82-1.48c-0.34-0.48-0.52-0.87-0.54-1.17c-0.02-0.13-0.06-0.5-0.13-1.13
		v-0.09l0.16-0.88c-0.59-0.42-0.88-0.71-0.88-0.88c0-0.06,0.49-0.38,1.48-0.95c0.55-0.32,0.82-0.79,0.82-1.42
		C160.98,69.13,160.3,68.74,158.96,68.58z"/>
	<g>
		<g>
			<path d="M211.55,83.27c-0.37,0.57-0.72,1-1.04,1.29c-0.32,0.29-0.58,0.43-0.79,0.43s-0.31-0.14-0.33-0.43
				c-0.02-0.29,0.11-0.72,0.38-1.29c0.13-0.27,0.45-0.96,0.94-2.08c0.49-1.11,1.06-2.48,1.72-4.1c0.66-1.62,1.36-3.42,2.1-5.39
				c0.74-1.97,1.43-3.97,2.08-6c0.64-2.03,1.19-4,1.65-5.92c0.46-1.92,0.73-3.63,0.81-5.11c0.08-1.48-0.05-2.67-0.4-3.57
				c-0.35-0.89-1.02-1.34-2-1.34c-1.45,0-2.95,0.74-4.48,2.23c-1.54,1.49-3.13,3.47-4.78,5.95c-1.65,2.48-3.38,5.36-5.19,8.63
				c-1.81,3.27-3.69,6.7-5.65,10.28c-0.64,1.32-1.22,2.51-1.75,3.57c-0.52,1.06-0.97,1.92-1.34,2.56c-0.2,0.37-0.42,0.58-0.66,0.63
				c-0.24,0.05-0.44,0.01-0.61-0.13c-0.17-0.14-0.28-0.35-0.33-0.66c-0.05-0.3,0.03-0.66,0.23-1.06c0.44-0.98,0.96-2.28,1.57-3.9
				c0.61-1.62,1.24-3.37,1.9-5.24c0.66-1.87,1.31-3.8,1.95-5.77c0.64-1.97,1.23-3.81,1.77-5.52c0.54-1.7,1.01-3.18,1.42-4.43
				c0.4-1.25,0.67-2.09,0.81-2.53c-1.89,1.28-3.53,2.38-4.91,3.29c-1.38,0.91-2.37,1.73-2.96,2.46c-0.59,0.73-0.71,1.4-0.35,2.03
				c0.35,0.62,1.34,1.26,2.96,1.9c0.13,0.07,0.15,0.3,0.05,0.71c-0.1,0.4-0.28,0.82-0.53,1.24c-0.25,0.42-0.57,0.78-0.96,1.06
				c-0.39,0.29-0.8,0.35-1.24,0.18c-1.82-0.78-3-1.61-3.54-2.51c-0.54-0.89-0.63-1.81-0.28-2.73c0.35-0.93,1.05-1.86,2.1-2.81
				c1.05-0.94,2.24-1.86,3.59-2.76c1.35-0.89,2.76-1.74,4.23-2.53c1.47-0.79,2.81-1.51,4.02-2.15c0.61-0.44,1.26-0.82,1.95-1.14
				c0.69-0.32,1.31-0.53,1.85-0.63c0.54-0.1,0.93-0.06,1.16,0.13c0.24,0.19,0.22,0.53-0.05,1.04c-0.3,0.57-0.81,1.59-1.52,3.06
				c-0.71,1.47-1.5,3.18-2.38,5.14c1.28-2.09,2.61-4.11,3.97-6.05c1.37-1.94,2.73-3.65,4.1-5.11c1.37-1.47,2.7-2.64,4-3.52
				c1.3-0.88,2.54-1.32,3.72-1.32c0.91,0,1.59,0.34,2.03,1.01c0.44,0.68,0.68,1.6,0.73,2.78c0.05,1.18-0.05,2.56-0.3,4.13
				c-0.25,1.57-0.62,3.25-1.09,5.04c-0.47,1.79-1.03,3.65-1.67,5.57c-0.64,1.92-1.3,3.81-1.97,5.67c0.94-1.82,1.96-3.69,3.04-5.59
				c1.08-1.91,2.18-3.75,3.32-5.54c1.13-1.79,2.29-3.48,3.47-5.06c1.18-1.59,2.35-2.97,3.52-4.15c1.16-1.18,2.3-2.12,3.42-2.81
				c1.11-0.69,2.19-1.04,3.24-1.04c1.15,0,1.87,0.6,2.18,1.8c0.3,1.2,0.29,2.78-0.05,4.76c-0.34,1.97-0.91,4.24-1.72,6.78
				c-0.81,2.55-1.74,5.17-2.78,7.87c-1.05,2.7-2.14,5.36-3.29,7.97c-1.15,2.62-2.22,4.99-3.22,7.11c-1,2.13-1.86,3.91-2.58,5.34
				c-0.73,1.43-1.17,2.3-1.34,2.61c-0.34,0.61-0.64,1.01-0.91,1.22c-0.27,0.2-0.47,0.26-0.61,0.18c-0.14-0.08-0.18-0.3-0.13-0.66
				c0.05-0.35,0.23-0.78,0.53-1.29c0.13-0.24,0.49-0.95,1.06-2.15c0.57-1.2,1.26-2.68,2.05-4.43c0.79-1.76,1.65-3.72,2.56-5.9
				c0.91-2.18,1.77-4.38,2.58-6.61c0.81-2.23,1.53-4.4,2.15-6.51c0.62-2.11,1.05-3.98,1.27-5.62c0.22-1.64,0.19-2.95-0.1-3.95
				c-0.29-1-0.92-1.49-1.9-1.49c-1.08,0-2.16,0.41-3.24,1.22c-1.08,0.81-2.17,1.94-3.27,3.39c-1.1,1.45-2.23,3.17-3.39,5.16
				c-1.16,1.99-2.37,4.17-3.62,6.53c-1.25,2.36-2.57,4.86-3.95,7.49c-1.38,2.63-2.85,5.32-4.41,8.05L211.55,83.27z"/>
			<path d="M250.59,66.56c0.4,0.24,0.56,0.58,0.48,1.04c-0.08,0.46-0.3,0.89-0.66,1.32c-0.35,0.42-0.78,0.75-1.27,0.99
				c-0.49,0.24-0.94,0.22-1.34-0.05c-0.24-0.13-0.47-0.28-0.71-0.43c-0.24-0.15-0.48-0.25-0.73-0.3c-0.25-0.05-0.52-0.03-0.81,0.08
				c-0.29,0.1-0.6,0.32-0.94,0.66c-0.27,0.27-0.52,0.73-0.76,1.37c-0.24,0.64-0.35,1.29-0.33,1.95c0.02,0.66,0.25,1.25,0.71,1.77
				c0.46,0.52,1.27,0.78,2.46,0.78c0.51,0,0.99-0.11,1.44-0.33c0.46-0.22,0.87-0.5,1.24-0.84c0.37-0.34,0.7-0.71,0.99-1.11
				c0.29-0.41,0.48-0.79,0.58-1.16c-0.17-0.94-0.15-1.65,0.05-2.1c0.2-0.46,0.49-0.74,0.86-0.86c0.37-0.12,0.8-0.1,1.29,0.05
				c0.49,0.15,0.94,0.35,1.34,0.58c0.88,0.51,1.64,0.85,2.28,1.04c0.64,0.19,1.22,0.25,1.75,0.2c0.52-0.05,1.02-0.2,1.49-0.46
				c0.47-0.25,0.96-0.56,1.47-0.94c0.88-0.64,1.41-0.81,1.59-0.51c0.19,0.3-0.11,0.76-0.89,1.37c-1.62,1.25-3.21,1.98-4.76,2.2
				c-1.55,0.22-3.31,0.14-5.27-0.23c-0.2,0.57-0.61,1.25-1.22,2.03c-0.61,0.78-1.36,1.49-2.25,2.15c-0.89,0.66-1.89,1.18-2.99,1.57
				c-1.1,0.39-2.2,0.45-3.32,0.18c-1.18-0.24-1.94-0.72-2.28-1.44c-0.34-0.73-0.42-1.52-0.25-2.38c0.17-0.86,0.51-1.73,1.01-2.61
				c0.51-0.88,1.01-1.6,1.52-2.18c0.47-0.61,1.07-1.17,1.8-1.7c0.73-0.52,1.48-0.96,2.25-1.32c0.78-0.35,1.54-0.58,2.28-0.68
				S250.08,66.26,250.59,66.56z"/>
			<path d="M272.61,65.7c-0.34,0.64-0.74,1.18-1.22,1.62c-0.4,0.41-0.91,0.75-1.52,1.04c-0.61,0.29-1.33,0.38-2.18,0.28
				c-1.11-0.1-2.17,0.1-3.16,0.61c-1,0.51-1.79,1.13-2.38,1.87c-0.59,0.74-0.94,1.48-1.04,2.2c-0.1,0.73,0.17,1.26,0.81,1.59
				c0.54,0.27,1.22,0.27,2.05,0c0.83-0.27,1.72-0.7,2.68-1.29c0.96-0.59,1.95-1.3,2.96-2.13c1.01-0.83,1.96-1.66,2.84-2.51
				c0.41-1.38,0.95-2.84,1.65-4.38c0.69-1.54,1.46-3.05,2.3-4.53c0.84-1.48,1.72-2.9,2.63-4.25c0.91-1.35,1.81-2.53,2.68-3.54
				c1.35-1.55,2.58-2.62,3.7-3.21c1.11-0.59,2.03-0.89,2.73-0.89c1.01,0,1.59,0.3,1.72,0.89c0.13,0.59-0.02,1.37-0.46,2.33
				c-0.44,0.96-1.11,2.06-2.02,3.29c-0.91,1.23-1.92,2.5-3.01,3.8c-1.1,1.3-2.22,2.57-3.37,3.82c-1.15,1.25-2.19,2.36-3.14,3.34
				c-0.51,1.11-0.92,2.18-1.24,3.19c-0.32,1.01-0.53,1.91-0.63,2.68c-0.1,0.78-0.06,1.4,0.13,1.87c0.19,0.47,0.55,0.73,1.09,0.76
				c0.91,0.07,1.84-0.04,2.78-0.33c0.94-0.29,1.85-0.67,2.71-1.16c0.86-0.49,1.69-1.01,2.48-1.57c0.79-0.56,1.49-1.05,2.1-1.49
				c0.71-0.51,1.15-0.62,1.32-0.35c0.17,0.27-0.05,0.64-0.66,1.11c-0.64,0.51-1.45,1.12-2.43,1.85c-0.98,0.73-2.06,1.44-3.24,2.13
				c-1.18,0.69-2.4,1.27-3.67,1.75c-1.27,0.47-2.49,0.71-3.67,0.71c-1.49,0-2.43-0.54-2.84-1.62c-0.4-1.08-0.44-2.46-0.1-4.15
				c-0.78,0.78-1.68,1.6-2.71,2.48c-1.03,0.88-2.12,1.7-3.27,2.46c-1.15,0.76-2.34,1.38-3.57,1.87c-1.23,0.49-2.42,0.73-3.57,0.73
				c-1.08,0-1.66-0.4-1.75-1.19c-0.08-0.79,0.17-1.76,0.76-2.91c0.59-1.15,1.46-2.36,2.61-3.65c1.15-1.28,2.4-2.4,3.77-3.34
				c1.37-0.94,2.78-1.62,4.25-2.03C270,65.04,271.36,65.13,272.61,65.7z M288,50c-0.34,0-0.83,0.35-1.47,1.06
				c-0.64,0.71-1.36,1.63-2.15,2.76c-0.79,1.13-1.62,2.43-2.48,3.9c-0.86,1.47-1.66,2.96-2.4,4.48c1.42-1.59,2.73-3.11,3.92-4.58
				c1.2-1.47,2.2-2.77,3.01-3.9c0.81-1.13,1.37-2.03,1.7-2.71C288.45,50.34,288.41,50,288,50z"/>
			<path d="M300.05,65.8c0.54,0.68,0.51,1.4-0.1,2.18c-0.61,0.78-1.49,1.54-2.66,2.3s-2.48,1.45-3.95,2.08
				c-1.47,0.63-2.78,1.12-3.92,1.49c0.3,0.74,0.84,1.34,1.6,1.8c0.76,0.46,1.71,0.62,2.86,0.48c1.05-0.1,2.17-0.4,3.37-0.89
				c1.2-0.49,2.38-1.05,3.54-1.67c1.16-0.62,2.26-1.27,3.29-1.95c1.03-0.67,1.92-1.27,2.66-1.77c0.81-0.57,1.33-0.78,1.57-0.63
				c0.24,0.15,0.02,0.53-0.66,1.14c-2.13,1.89-4.33,3.48-6.61,4.76c-2.28,1.28-4.45,2.19-6.51,2.73c-2.06,0.54-3.9,0.7-5.52,0.48
				c-1.62-0.22-2.85-0.89-3.7-2c-0.64-0.84-0.82-1.8-0.53-2.86c0.29-1.06,0.87-2.13,1.75-3.19c0.88-1.06,1.95-2.04,3.22-2.94
				c1.27-0.89,2.56-1.59,3.87-2.08c1.32-0.49,2.55-0.73,3.7-0.71C298.47,64.58,299.38,64.99,300.05,65.8z M292.61,67.57
				c-1.28,0.74-2.19,1.58-2.71,2.51c-0.52,0.93-0.75,1.83-0.68,2.71c1.11-0.41,2.6-1.05,4.46-1.92c0.74-0.34,1.34-0.84,1.8-1.49
				c0.46-0.66,0.67-1.23,0.63-1.72c-0.03-0.49-0.32-0.79-0.86-0.91C294.7,66.62,293.83,66.9,292.61,67.57z"/>
		</g>
		<g>
			<radialGradient id="SVGID_1_" cx="248.9723" cy="66.1603" r="45.0169" gradientUnits="userSpaceOnUse">
				<stop  offset="0" style="stop-color:#FFA700"/>
				<stop  offset="0.0612" style="stop-color:#FDAD11"/>
				<stop  offset="0.1829" style="stop-color:#F9BE3E"/>
				<stop  offset="0.3522" style="stop-color:#F3D986"/>
				<stop  offset="0.3708" style="stop-color:#F2DC8E"/>
				<stop  offset="0.6854" style="stop-color:#F0BF00"/>
				<stop  offset="1" style="stop-color:#C9961A"/>
			</radialGradient>
			<path class="st0" d="M211.55,83.27c-0.37,0.57-0.72,1-1.04,1.29c-0.32,0.29-0.58,0.43-0.79,0.43s-0.31-0.14-0.33-0.43
				c-0.02-0.29,0.11-0.72,0.38-1.29c0.13-0.27,0.45-0.96,0.94-2.08c0.49-1.11,1.06-2.48,1.72-4.1c0.66-1.62,1.36-3.42,2.1-5.39
				c0.74-1.97,1.43-3.97,2.08-6c0.64-2.03,1.19-4,1.65-5.92c0.46-1.92,0.73-3.63,0.81-5.11c0.08-1.48-0.05-2.67-0.4-3.57
				c-0.35-0.89-1.02-1.34-2-1.34c-1.45,0-2.95,0.74-4.48,2.23c-1.54,1.49-3.13,3.47-4.78,5.95c-1.65,2.48-3.38,5.36-5.19,8.63
				c-1.81,3.27-3.69,6.7-5.65,10.28c-0.64,1.32-1.22,2.51-1.75,3.57c-0.52,1.06-0.97,1.92-1.34,2.56c-0.2,0.37-0.42,0.58-0.66,0.63
				c-0.24,0.05-0.44,0.01-0.61-0.13c-0.17-0.14-0.28-0.35-0.33-0.66c-0.05-0.3,0.03-0.66,0.23-1.06c0.44-0.98,0.96-2.28,1.57-3.9
				c0.61-1.62,1.24-3.37,1.9-5.24c0.66-1.87,1.31-3.8,1.95-5.77c0.64-1.97,1.23-3.81,1.77-5.52c0.54-1.7,1.01-3.18,1.42-4.43
				c0.4-1.25,0.67-2.09,0.81-2.53c-1.89,1.28-3.53,2.38-4.91,3.29c-1.38,0.91-2.37,1.73-2.96,2.46c-0.59,0.73-0.71,1.4-0.35,2.03
				c0.35,0.62,1.34,1.26,2.96,1.9c0.13,0.07,0.15,0.3,0.05,0.71c-0.1,0.4-0.28,0.82-0.53,1.24c-0.25,0.42-0.57,0.78-0.96,1.06
				c-0.39,0.29-0.8,0.35-1.24,0.18c-1.82-0.78-3-1.61-3.54-2.51c-0.54-0.89-0.63-1.81-0.28-2.73c0.35-0.93,1.05-1.86,2.1-2.81
				c1.05-0.94,2.24-1.86,3.59-2.76c1.35-0.89,2.76-1.74,4.23-2.53c1.47-0.79,2.81-1.51,4.02-2.15c0.61-0.44,1.26-0.82,1.95-1.14
				c0.69-0.32,1.31-0.53,1.85-0.63c0.54-0.1,0.93-0.06,1.16,0.13c0.24,0.19,0.22,0.53-0.05,1.04c-0.3,0.57-0.81,1.59-1.52,3.06
				c-0.71,1.47-1.5,3.18-2.38,5.14c1.28-2.09,2.61-4.11,3.97-6.05c1.37-1.94,2.73-3.65,4.1-5.11c1.37-1.47,2.7-2.64,4-3.52
				c1.3-0.88,2.54-1.32,3.72-1.32c0.91,0,1.59,0.34,2.03,1.01c0.44,0.68,0.68,1.6,0.73,2.78c0.05,1.18-0.05,2.56-0.3,4.13
				c-0.25,1.57-0.62,3.25-1.09,5.04c-0.47,1.79-1.03,3.65-1.67,5.57c-0.64,1.92-1.3,3.81-1.97,5.67c0.94-1.82,1.96-3.69,3.04-5.59
				c1.08-1.91,2.18-3.75,3.32-5.54c1.13-1.79,2.29-3.48,3.47-5.06c1.18-1.59,2.35-2.97,3.52-4.15c1.16-1.18,2.3-2.12,3.42-2.81
				c1.11-0.69,2.19-1.04,3.24-1.04c1.15,0,1.87,0.6,2.18,1.8c0.3,1.2,0.29,2.78-0.05,4.76c-0.34,1.97-0.91,4.24-1.72,6.78
				c-0.81,2.55-1.74,5.17-2.78,7.87c-1.05,2.7-2.14,5.36-3.29,7.97c-1.15,2.62-2.22,4.99-3.22,7.11c-1,2.13-1.86,3.91-2.58,5.34
				c-0.73,1.43-1.17,2.3-1.34,2.61c-0.34,0.61-0.64,1.01-0.91,1.22c-0.27,0.2-0.47,0.26-0.61,0.18c-0.14-0.08-0.18-0.3-0.13-0.66
				c0.05-0.35,0.23-0.78,0.53-1.29c0.13-0.24,0.49-0.95,1.06-2.15c0.57-1.2,1.26-2.68,2.05-4.43c0.79-1.76,1.65-3.72,2.56-5.9
				c0.91-2.18,1.77-4.38,2.58-6.61c0.81-2.23,1.53-4.4,2.15-6.51c0.62-2.11,1.05-3.98,1.27-5.62c0.22-1.64,0.19-2.95-0.1-3.95
				c-0.29-1-0.92-1.49-1.9-1.49c-1.08,0-2.16,0.41-3.24,1.22c-1.08,0.81-2.17,1.94-3.27,3.39c-1.1,1.45-2.23,3.17-3.39,5.16
				c-1.16,1.99-2.37,4.17-3.62,6.53c-1.25,2.36-2.57,4.86-3.95,7.49c-1.38,2.63-2.85,5.32-4.41,8.05L211.55,83.27z"/>
			<radialGradient id="SVGID_2_" cx="248.9723" cy="66.1603" r="45.0169" gradientUnits="userSpaceOnUse">
				<stop  offset="0" style="stop-color:#FFA700"/>
				<stop  offset="0.0612" style="stop-color:#FDAD11"/>
				<stop  offset="0.1829" style="stop-color:#F9BE3E"/>
				<stop  offset="0.3522" style="stop-color:#F3D986"/>
				<stop  offset="0.3708" style="stop-color:#F2DC8E"/>
				<stop  offset="0.6854" style="stop-color:#F0BF00"/>
				<stop  offset="1" style="stop-color:#C9961A"/>
			</radialGradient>
			<path class="st1" d="M250.59,66.56c0.4,0.24,0.56,0.58,0.48,1.04c-0.08,0.46-0.3,0.89-0.66,1.32c-0.35,0.42-0.78,0.75-1.27,0.99
				c-0.49,0.24-0.94,0.22-1.34-0.05c-0.24-0.13-0.47-0.28-0.71-0.43c-0.24-0.15-0.48-0.25-0.73-0.3c-0.25-0.05-0.52-0.03-0.81,0.08
				c-0.29,0.1-0.6,0.32-0.94,0.66c-0.27,0.27-0.52,0.73-0.76,1.37c-0.24,0.64-0.35,1.29-0.33,1.95c0.02,0.66,0.25,1.25,0.71,1.77
				c0.46,0.52,1.27,0.78,2.46,0.78c0.51,0,0.99-0.11,1.44-0.33c0.46-0.22,0.87-0.5,1.24-0.84c0.37-0.34,0.7-0.71,0.99-1.11
				c0.29-0.41,0.48-0.79,0.58-1.16c-0.17-0.94-0.15-1.65,0.05-2.1c0.2-0.46,0.49-0.74,0.86-0.86c0.37-0.12,0.8-0.1,1.29,0.05
				c0.49,0.15,0.94,0.35,1.34,0.58c0.88,0.51,1.64,0.85,2.28,1.04c0.64,0.19,1.22,0.25,1.75,0.2c0.52-0.05,1.02-0.2,1.49-0.46
				c0.47-0.25,0.96-0.56,1.47-0.94c0.88-0.64,1.41-0.81,1.59-0.51c0.19,0.3-0.11,0.76-0.89,1.37c-1.62,1.25-3.21,1.98-4.76,2.2
				c-1.55,0.22-3.31,0.14-5.27-0.23c-0.2,0.57-0.61,1.25-1.22,2.03c-0.61,0.78-1.36,1.49-2.25,2.15c-0.89,0.66-1.89,1.18-2.99,1.57
				c-1.1,0.39-2.2,0.45-3.32,0.18c-1.18-0.24-1.94-0.72-2.28-1.44c-0.34-0.73-0.42-1.52-0.25-2.38c0.17-0.86,0.51-1.73,1.01-2.61
				c0.51-0.88,1.01-1.6,1.52-2.18c0.47-0.61,1.07-1.17,1.8-1.7c0.73-0.52,1.48-0.96,2.25-1.32c0.78-0.35,1.54-0.58,2.28-0.68
				S250.08,66.26,250.59,66.56z"/>
			<radialGradient id="SVGID_3_" cx="248.9723" cy="66.1603" r="45.0169" gradientUnits="userSpaceOnUse">
				<stop  offset="0" style="stop-color:#FFA700"/>
				<stop  offset="0.0612" style="stop-color:#FDAD11"/>
				<stop  offset="0.1829" style="stop-color:#F9BE3E"/>
				<stop  offset="0.3522" style="stop-color:#F3D986"/>
				<stop  offset="0.3708" style="stop-color:#F2DC8E"/>
				<stop  offset="0.6854" style="stop-color:#F0BF00"/>
				<stop  offset="1" style="stop-color:#C9961A"/>
			</radialGradient>
			<path class="st2" d="M272.61,65.7c-0.34,0.64-0.74,1.18-1.22,1.62c-0.4,0.41-0.91,0.75-1.52,1.04c-0.61,0.29-1.33,0.38-2.18,0.28
				c-1.11-0.1-2.17,0.1-3.16,0.61c-1,0.51-1.79,1.13-2.38,1.87c-0.59,0.74-0.94,1.48-1.04,2.2c-0.1,0.73,0.17,1.26,0.81,1.59
				c0.54,0.27,1.22,0.27,2.05,0c0.83-0.27,1.72-0.7,2.68-1.29c0.96-0.59,1.95-1.3,2.96-2.13c1.01-0.83,1.96-1.66,2.84-2.51
				c0.41-1.38,0.95-2.84,1.65-4.38c0.69-1.54,1.46-3.05,2.3-4.53c0.84-1.48,1.72-2.9,2.63-4.25c0.91-1.35,1.81-2.53,2.68-3.54
				c1.35-1.55,2.58-2.62,3.7-3.21c1.11-0.59,2.03-0.89,2.73-0.89c1.01,0,1.59,0.3,1.72,0.89c0.13,0.59-0.02,1.37-0.46,2.33
				c-0.44,0.96-1.11,2.06-2.02,3.29c-0.91,1.23-1.92,2.5-3.01,3.8c-1.1,1.3-2.22,2.57-3.37,3.82c-1.15,1.25-2.19,2.36-3.14,3.34
				c-0.51,1.11-0.92,2.18-1.24,3.19c-0.32,1.01-0.53,1.91-0.63,2.68c-0.1,0.78-0.06,1.4,0.13,1.87c0.19,0.47,0.55,0.73,1.09,0.76
				c0.91,0.07,1.84-0.04,2.78-0.33c0.94-0.29,1.85-0.67,2.71-1.16c0.86-0.49,1.69-1.01,2.48-1.57c0.79-0.56,1.49-1.05,2.1-1.49
				c0.71-0.51,1.15-0.62,1.32-0.35c0.17,0.27-0.05,0.64-0.66,1.11c-0.64,0.51-1.45,1.12-2.43,1.85c-0.98,0.73-2.06,1.44-3.24,2.13
				c-1.18,0.69-2.4,1.27-3.67,1.75c-1.27,0.47-2.49,0.71-3.67,0.71c-1.49,0-2.43-0.54-2.84-1.62c-0.4-1.08-0.44-2.46-0.1-4.15
				c-0.78,0.78-1.68,1.6-2.71,2.48c-1.03,0.88-2.12,1.7-3.27,2.46c-1.15,0.76-2.34,1.38-3.57,1.87c-1.23,0.49-2.42,0.73-3.57,0.73
				c-1.08,0-1.66-0.4-1.75-1.19c-0.08-0.79,0.17-1.76,0.76-2.91c0.59-1.15,1.46-2.36,2.61-3.65c1.15-1.28,2.4-2.4,3.77-3.34
				c1.37-0.94,2.78-1.62,4.25-2.03C270,65.04,271.36,65.13,272.61,65.7z M288,50c-0.34,0-0.83,0.35-1.47,1.06
				c-0.64,0.71-1.36,1.63-2.15,2.76c-0.79,1.13-1.62,2.43-2.48,3.9c-0.86,1.47-1.66,2.96-2.4,4.48c1.42-1.59,2.73-3.11,3.92-4.58
				c1.2-1.47,2.2-2.77,3.01-3.9c0.81-1.13,1.37-2.03,1.7-2.71C288.45,50.34,288.41,50,288,50z"/>
			<radialGradient id="SVGID_4_" cx="248.9723" cy="66.1603" r="45.0169" gradientUnits="userSpaceOnUse">
				<stop  offset="0" style="stop-color:#FFA700"/>
				<stop  offset="0.0612" style="stop-color:#FDAD11"/>
				<stop  offset="0.1829" style="stop-color:#F9BE3E"/>
				<stop  offset="0.3522" style="stop-color:#F3D986"/>
				<stop  offset="0.3708" style="stop-color:#F2DC8E"/>
				<stop  offset="0.6854" style="stop-color:#F0BF00"/>
				<stop  offset="1" style="stop-color:#C9961A"/>
			</radialGradient>
			<path class="st3" d="M300.05,65.8c0.54,0.68,0.51,1.4-0.1,2.18c-0.61,0.78-1.49,1.54-2.66,2.3s-2.48,1.45-3.95,2.08
				c-1.47,0.63-2.78,1.12-3.92,1.49c0.3,0.74,0.84,1.34,1.6,1.8c0.76,0.46,1.71,0.62,2.86,0.48c1.05-0.1,2.17-0.4,3.37-0.89
				c1.2-0.49,2.38-1.05,3.54-1.67c1.16-0.62,2.26-1.27,3.29-1.95c1.03-0.67,1.92-1.27,2.66-1.77c0.81-0.57,1.33-0.78,1.57-0.63
				c0.24,0.15,0.02,0.53-0.66,1.14c-2.13,1.89-4.33,3.48-6.61,4.76c-2.28,1.28-4.45,2.19-6.51,2.73c-2.06,0.54-3.9,0.7-5.52,0.48
				c-1.62-0.22-2.85-0.89-3.7-2c-0.64-0.84-0.82-1.8-0.53-2.86c0.29-1.06,0.87-2.13,1.75-3.19c0.88-1.06,1.95-2.04,3.22-2.94
				c1.27-0.89,2.56-1.59,3.87-2.08c1.32-0.49,2.55-0.73,3.7-0.71C298.47,64.58,299.38,64.99,300.05,65.8z M292.61,67.57
				c-1.28,0.74-2.19,1.58-2.71,2.51c-0.52,0.93-0.75,1.83-0.68,2.71c1.11-0.41,2.6-1.05,4.46-1.92c0.74-0.34,1.34-0.84,1.8-1.49
				c0.46-0.66,0.67-1.23,0.63-1.72c-0.03-0.49-0.32-0.79-0.86-0.91C294.7,66.62,293.83,66.9,292.61,67.57z"/>
		</g>
	</g>
	<g>
		<g>
			<path d="M97.97,58.07c-0.06,0.1-0.19,0.19-0.38,0.28c-0.65,0.3-2.03,0.52-3.81,0.69c-0.23,0.02-0.46,0.04-0.7,0.05
				c-0.06,0.01-0.11,0.01-0.17,0.01c-3.03,0.24-6.96,0.33-10.5,0.36c-2.1,0.02-4.06,0.01-5.61,0h-0.04l0.04-0.03l4.41-3.09
				l2.27,0.24l9.01,0.92l1.06,0.11L97.97,58.07z"/>
		</g>
		<g>
			<g>
				<g>
					<path d="M87.24,46.49l-3.76,10.1l-1.07,2.88l-0.57,1.55l-0.01,0.02l-0.45,1.19l-0.01,0.03l-7.48,20.08
						c-0.78-0.78-0.61-4.14,0.11-8.83l0.04,0.02l0.38-0.22c0.02-0.74,0.21-2.09,0.57-4.08c0.02-0.17,0.08-0.54,0.18-1.09
						c-0.06-0.08-0.12-0.15-0.17-0.23c0.1-0.48,0.19-0.98,0.3-1.48c0-0.01,0.01-0.02,0.01-0.04c0.02,0,0.05-0.01,0.07-0.01
						c0.14-0.16,0.24-0.28,0.26-0.39l0.59-3.04l0.05-1.16c0.04-0.17,0.07-0.34,0.11-0.52c0.13-0.6,0.27-1.2,0.4-1.81
						c0-0.01,0.01-0.02,0.01-0.03c0.22-0.97,0.45-1.95,0.68-2.93c0.01-0.05,0.02-0.1,0.04-0.14c0.1-0.41,0.19-0.83,0.3-1.24
						c0.3-0.24,0.48-0.46,0.52-0.66c0.74-2.85,1.08-4.38,1.03-4.59c-0.05-0.22-0.1-0.42-0.13-0.6c0.16-0.62,0.31-1.24,0.46-1.85
						c0.39-0.48,0.62-0.78,0.66-0.91l0.56-2.27c0.22-0.77,0.35-1.24,0.4-1.42c0.11-0.43,0.29-0.81,0.53-1.16
						c-0.38-0.23-0.54-0.45-0.48-0.68c0.04-0.14,0.32-0.48,0.85-1.01l0.86-1.57l0.51-0.59c0.09-0.14,0.18-0.29,0.27-0.43
						L87.24,46.49z"/>
				</g>
				<g>
					<path d="M110.47,2.34c-0.92-0.91-2-1.57-3.22-1.97c-4.44-1.42-9.29,1.28-10.8,6.03l-2.41,7.52c-0.47,1.47-0.56,3.01-0.31,4.47
						c-1.44,2.52-3.41,4.65-5.13,6.21c1.48,1.27,2.6,2,2.62,2.02l0.34,0.22l0.11,0.39c0.01,0.05,0.46,1.63,1.16,4.22L96,22.99
						c0.04,0.05,0.09,0.1,0.13,0.14c0.92,0.92,2,1.58,3.22,1.97c0.81,0.26,1.64,0.38,2.46,0.38c1.35-0.01,2.66-0.34,3.85-0.97
						c2.05-1.07,3.71-2.97,4.49-5.43l2.41-7.52C113.61,8.28,112.78,4.66,110.47,2.34z M109.03,10.42l-2.41,7.52
						c-0.89,2.79-3.65,4.42-6.13,3.62c-2.48-0.8-3.78-3.73-2.9-6.5l2.41-7.52c0.89-2.79,3.65-4.42,6.13-3.62
						C108.6,4.72,109.91,7.64,109.03,10.42z"/>
				</g>
			</g>
			<g>
				<path d="M102.22,78.82c-0.14-0.01-0.33-0.07-0.58-0.16c0.04-0.31,0.04-0.71-0.01-1.19l-0.04-0.74l-0.05-0.92
					c0.09-1.01,0.1-1.71,0.01-2.11c-0.05-0.21-0.19-0.78-0.43-1.74c0.07-0.08,0.14-0.17,0.2-0.25c-0.14-0.81-0.29-1.65-0.45-2.51
					l-0.01-0.01c-0.3-0.61-0.48-1.04-0.54-1.29l-0.19-1l-1.2-5.29c-0.14-0.7-0.12-1.1,0.05-1.21c0.01-0.01,0.03-0.02,0.04-0.02
					c-0.08-0.37-0.16-0.74-0.25-1.12c-0.09-0.01-0.16-0.02-0.19-0.06l-1-0.86c0.19-0.09,0.32-0.18,0.38-0.28l-4.42-0.45
					c0.29-0.52,0.62-0.83,0.98-0.91c0.22-0.05,0.77-0.1,1.62-0.14l1.08-1.08c-0.06-0.36-0.12-0.81-0.19-1.38l-0.73-3.07
					c-0.1-0.48-0.08-1.07,0.08-1.79c-0.04-0.14-0.07-0.28-0.11-0.42c-0.37-0.17-0.63-0.34-0.78-0.51c-0.05-0.05-0.33-1.1-0.81-3.15
					l-0.53-2.2l-0.37-1.5c-0.09-0.39-0.03-0.85,0.17-1.39c0.02-0.05,0.04-0.11,0.05-0.16c-0.45-1.74-0.88-3.35-1.27-4.81
					c-0.02-0.1-0.05-0.19-0.08-0.29c-0.33-1.25-0.64-2.38-0.91-3.36c-0.67-2.46-1.08-3.92-1.08-3.92s-5.64-3.63-8.77-9.11
					c0.09-0.52,0.13-1.06,0.13-1.59c0-0.97-0.14-1.94-0.45-2.88l-2.41-7.52c-1.53-4.74-6.38-7.45-10.82-6.03
					c-1.21,0.39-2.29,1.06-3.21,1.97c-2.32,2.32-3.14,5.93-2.08,9.2l2.4,7.53c1.52,4.75,6.37,7.45,10.81,6.03
					c1.22-0.39,2.31-1.06,3.23-1.98c0.04-0.04,0.08-0.09,0.13-0.14l3.98,10.66l0.04,0.1l0.87,2.35l0.07,0.2l7.9,21.21l0.51,1.38
					l0.08,0.21l0.23,0.62l8.43,22.64C102.18,81.91,102.32,80.67,102.22,78.82z M75.12,21.56c-2.48,0.8-5.23-0.83-6.12-3.61
					l-2.41-7.52c-0.89-2.79,0.41-5.71,2.9-6.5c2.47-0.8,5.23,0.83,6.12,3.6l2.41,7.53C78.92,17.84,77.62,20.76,75.12,21.56z
					 M89.47,33.37c0.04,0.43-0.1,0.88-0.43,1.21c-0.59,0.59-1.54,0.59-2.13,0c-0.14-0.14-0.25-0.31-0.32-0.49
					c-0.01-0.04-0.03-0.07-0.04-0.1c-0.18-0.52-0.05-1.12,0.36-1.53c0.11-0.11,0.25-0.21,0.39-0.28c0.19-0.1,0.4-0.15,0.62-0.16
					c0.4-0.01,0.81,0.13,1.12,0.45c0.25,0.25,0.39,0.57,0.43,0.9C89.47,33.37,89.47,33.37,89.47,33.37z"/>
			</g>
		</g>
	</g>
</g>
</svg>
